{
  "networkId": "42",
  "ethereum": {
    "http": "https://eth-kovan.alchemyapi.io/v2/1FomA6seLdWDvpIRvL9J5NhwPHLIGbWA",
    "rpcRetryCount": 5,
    "rpcRetryInterval": 0,
    "rpcConcurrency": 40
  },
  "gas": {
    "price": 20000000000,
    "limit": 10000000
  },
  "deploy": {
    "isProduction": false,
    "enableFaucets": true,
    "normalTime": true,
    "externalAddresses": {
      "Exchange": "0x4eacd0aF335451709e1e7B570B8Ea68EdEC8bc97"
    },
    "writeArtifacts": true,
    "serial": true
  },
  "uniswap": {
    "exchangeRateBufferMultiplier": 1.075
  },
  "gsn": {
    "enabled": true,
    "minDaiForSignerETHBalanceInDAI": 40,
    "desiredSignerBalanceInETH": 0.04
  },
  "zeroX": {
    "rpc": {
      "enabled": false,
      "ws": "wss://v2.augur.net/0x-ws"
    },
    "mesh": {
      "verbosity": 1,
      "enabled": true,
      "useBootstrapList": true,
      "bootstrapList": []
    }
  },
  "uploadBlockNumber": 18612412,
  "addresses": {
    "Augur": "0x4045A51631181A63d4136b56e2C85552A2c87783",
    "Universe": "0x2C41A5516ED977577eeAEf423e80cd98BAbC204a",
    "LegacyReputationToken": "0x45FdBfdFcF744C88e7A07077E6eb35A071d199d8",
    "Cash": "0xa210636428BBBf2d4ef9D13F653880Bbf43a966f",
    "ProxyFactory": "0x929CF3F7f8bC73c17Ca6238F8408379A91Ee1f6F",
    "GnosisSafe": "0x321fd7D3097190492CFf384F48d6d9f3B862c67F",
    "CashFaucet": "0xa210636428BBBf2d4ef9D13F653880Bbf43a966f",
    "BuyParticipationTokens": "0x24E7475d3864449BB23F8625Ac228Bb0212aEf6E",
    "RedeemStake": "0xC0474b8c13273a4E3f5DD22791b977FCa66E478B",
    "GnosisSafeRegistry": "0xca3C2C3246902222C5f770729AE1A63C01f2d57A",
    "WarpSync": "0x4fed5FC509EA28a7893105501350167133AC0d1D",
    "ShareToken": "0xE64759c680365f63FecCc37D544c666f4C348965",
    "HotLoading": "0x208993149C873a2fCCD1c822E1300Fbb7189ede8",
    "EthExchange": "0x23E180b989f31deA30110B7Fc4F04b987d58da3b",
    "Affiliates": "0x605d9dbff50B24A005A0A9Eb0281b08E57C5e752",
    "AffiliateValidator": "0xcAE2EF2Df8fF9FBCd56805077948C91C48DB51c3",
    "Exchange": "0x4eacd0aF335451709e1e7B570B8Ea68EdEC8bc97",
    "Time": "0x5711Ab4a5465Ea74f0D982CAcdCDe7A423CFC6ea",
    "AugurTrading": "0x1d4574C656723B44dA79a394485B156aeC8ecc2D",
    "CancelOrder": "0x9202812D979E1749FfE47F0922cfd96D3d625e7A",
    "CreateOrder": "0xE44a113145b37176d0F9a2b2cb06Df9100ec482c",
    "FillOrder": "0x431A0376274dCb5612bBD96491946d55cA0215f1",
    "Orders": "0x245f942add87Ba2f2b524b8D27eA1c891E514960",
    "ProfitLoss": "0xAFA6f5A71D8923035d7DFb3479Fc8AdBe1de3E20",
    "SimulateTrade": "0x0C324E5D2350eB0Ffe75340AE369c5BA21ce3060",
    "Trade": "0x3690055c6F3796471C8f56c12d0Cc6C832B6e146",
    "ZeroXTrade": "0xFa1f3f94103A64D9110fdfE899574f3937006D77",
    "OICash": "0xcD0919d17e5291b0e6F8Fbd6bEfe46A4E4d61Ca9",
    "AugurWalletRegistry": "0x7dd03C665f72A4e30Ba66413F40a65410fAbc4b2",
    "UniswapV2Factory": "0x008643156F5BbcbE76FC0eDCF8d96B7e8D8840a4",
    "WETH9": "0x0773DaEF95c88F91636bD355024FC232Eb2886D6",
    "UniswapV2Router01": "0x24cd7D3ff88a77469607583714A4Eed485e80c4f",
    "AuditFunds": "0xcac140a8f2f2b6e5EEF0dA098f8bF43a68888dAd"
  },
  "useWarpSync": true,
  "server": {
    "httpPort": 9003,
    "startHTTP": true,
    "httpsPort": 9004,
    "startHTTPS": true,
    "wsPort": 9001,
    "startWS": true,
    "wssPort": 9002,
    "startWSS": true
  },
  "plugins": {
    "chat": "orbit"
  },
  "syncing": {
    "enabled": true
  },
  "sdk": {
    "enabled": false,
    "ws": "ws://localhost:60557"
  },
  "warpSync": {
    "enabled": false,
    "autoReport": false
  },
  "logLevel": 0,
  "showReloadModal": true,
  "averageBlocktime": 2000
}
